Data Visualization Blog - Blog Post 2: Women in the Workplace
…
library(broom)
linear_mod <- lm(wage_percent_of_male ~ year, data = jobs_gender)
linear_mod |> tidy()

# A tibble: 2 × 5
  term        estimate std.error statistic p.value
  <chr>          <dbl>     <dbl>     <dbl>   <dbl>
1 (Intercept) -322.      479.       -0.671   0.502
2 year           0.201     0.238     0.847   0.397

aug_mod <- linear_mod |> augment()
aug_mod

# A tibble: 1,242 × 9
   .rownames wage_percent_of_male  year .fitted .resid    .hat .sigma   .cooksd
   <chr>                    <dbl> <dbl>   <dbl>  <dbl>   <dbl>  <dbl>     <dbl>
 1 1                         76.0  2013    83.7  -7.69 0.00226   9.38 0.000761 
 2 2                         75.0  2013    83.7  -8.76 0.00226   9.38 0.000987 
 3 3                         91.3  2013    83.7   7.60 0.00226   9.38 0.000743 
 4 4                         74.3  2013    83.7  -9.44 0.00226   9.38 0.00115  
 5 5                         70.7  2013    83.7 -13.0  0.00226   9.38 0.00219  
 6 6                         73.3  2013    83.7 -10.4  0.00226   9.38 0.00139  
 7 7                         82.7  2013    83.7  -1.00 0.00226   9.38 0.0000129
 8 8                         89.8  2013    83.7   6.03 0.00226   9.38 0.000468 
 9 9                         63.6  2013    83.7 -20.1  0.00226   9.37 0.00522  
10 11                        85.8  2013    83.7   2.11 0.00226   9.38 0.0000574
# ℹ 1,232 more rows
# ℹ 1 more variable: .std.resid <dbl>
…
