Data Visualization Blog - Blog Post 3: Chocolate Rating
…
Attaching package: 'modelr'

The following object is masked from 'package:broom':

    bootstrap

grid <- chocolate_data |>
  data_grid(
    cocoa_percent = seq_range(cocoa_percent, n = 6),
    company_continent = chocolate_data |> pull(company_continent) |> levels(),
    bean_continent = chocolate_data |> pull(bean_continent) |> levels()
  )
grid

# A tibble: 180 × 3
   cocoa_percent company_continent bean_continent
           <dbl> <chr>             <chr>         
 1            42 Africa            Africa        
 2            42 Africa            Asia          
 3            42 Africa            North America 
 4            42 Africa            Oceania       
 5            42 Africa            South America 
 6            42 Asia              Africa        
 7            42 Asia              Asia          
 8            42 Asia              North America 
 9            42 Asia              Oceania       
10            42 Asia              South America 
# ℹ 170 more rows

aug <- augment(model, newdata = grid, interval = "confidence")
aug

# A tibble: 180 × 6
   cocoa_percent company_continent bean_continent .fitted .lower .upper
           <dbl> <chr>             <chr>            <dbl>  <dbl>  <dbl>
 1            42 Africa            Africa            3.35   3.16   3.54
 2            42 Africa            Asia              3.34   3.13   3.54
 3            42 Africa            North America     3.34   3.15   3.54
 4            42 Africa            Oceania           3.33   3.12   3.55
 5            42 Africa            South America     3.36   3.16   3.56
 6            42 Asia              Africa            3.52   3.39   3.65
 7            42 Asia              Asia              3.51   3.38   3.63
 8            42 Asia              North America     3.51   3.38   3.64
 9            42 Asia              Oceania           3.50   3.34   3.66
10            42 Asia              South America     3.52   3.40   3.65
# ℹ 170 more rows
…
aug2 <- augment(model2, newdata = grid, interval = "confidence")
aug2

# A tibble: 180 × 6
   cocoa_percent company_continent bean_continent .fitted .lower .upper
           <dbl> <chr>             <chr>            <dbl>  <dbl>  <dbl>
 1            42 Africa            Africa            3.41   3.09   3.73
 2            42 Africa            Asia              3.26   2.77   3.74
 3            42 Africa            North America     3.27   3.02   3.53
 4            42 Africa            Oceania           3.10   2.62   3.58
 5            42 Africa            South America     3.41   3.19   3.63
 6            42 Asia              Africa            3.58   3.29   3.86
 7            42 Asia              Asia              3.43   2.97   3.88
 8            42 Asia              North America     3.44   3.23   3.65
 9            42 Asia              Oceania           3.27   2.81   3.72
10            42 Asia              South America     3.58   3.42   3.74
# ℹ 170 more rows
…
